^C:\USERS\ARTUR\DESKTOP\QTDEK\QT_58_VS2013_DEMO\MAINWINDOW.UI
C:\QT\5.8\MSVC2013\BIN\UIC.EXE
^C:\USERS\ARTUR\DESKTOP\QTDEK\QT_58_VS2013_DEMO\AUTORIZATION.UI
C:\QT\5.8\MSVC2013\BIN\UIC.EXE
^C:\USERS\ARTUR\DESKTOP\QTDEK\QT_58_VS2013_DEMO\DEBUG\MOC_PREDEFS.H.CBT
C:\QT\5.8\MSVC2013\MKSPECS\FEATURES\DATA\DUMMY.CPP
^D:\DOWNLOAD FROM GOOGLE\QTDEK\QT_58_VS2013_DEMO\MAINWINDOW.UI
C:\QT\5.8\MSVC2013\BIN\UIC.EXE
^D:\DOWNLOAD FROM GOOGLE\QTDEK\QT_58_VS2013_DEMO\MAINWINDOW.H
C:\QT\5.8\MSVC2013\BIN\MOC.EXE
^D:\DOWNLOAD FROM GOOGLE\QTDEK\QT_58_VS2013_DEMO\AUTORIZATION.UI
C:\QT\5.8\MSVC2013\BIN\UIC.EXE
^D:\DOWNLOAD FROM GOOGLE\QTDEK\QT_58_VS2013_DEMO\AUTORIZ.H
C:\QT\5.8\MSVC2013\BIN\MOC.EXE
^D:\DOWNLOAD FROM GOOGLE\QTDEK\QT_58_VS2013_DEMO\DEBUG\MOC_PREDEFS.H.CBT
C:\QT\5.8\MSVC2013\MKSPECS\FEATURES\DATA\DUMMY.CPP
