^C:\USERS\ARTUR\DESKTOP\QTDEK\QT_58_VS2013_DEMO\MAINWINDOW.H
"C:\Qt\5.8\msvc2013\bin\moc.exe"  "C:\Users\Artur\Desktop\qtdek\qt_58_vs2013_demo\mainwindow.h" -o ".\GeneratedFiles\Debug\moc_mainwindow.cpp"  -D_WINDOWS -DUNICODE -DWIN32 -DQT_DEPRECATED_WARNINGS -DQT_WIDGETS_LIB -DQT_GUI_LIB -DQT_CORE_LIB -DNIM_WIN_DESKTOP_ONLY_SDK  "-I." "-IC:\Qt\5.8\msvc2013\include" "-IC:\Qt\5.8\msvc2013\include\QtWidgets" "-IC:\Qt\5.8\msvc2013\include\QtGui" "-IC:\Qt\5.8\msvc2013\include\QtANGLE" "-IC:\Qt\5.8\msvc2013\include\QtCore" "-I.\debug" "-IC:\Qt\5.8\msvc2013\mkspecs\win32-msvc2013" "-I.\GeneratedFiles" "-I.\..\nim_chatroom_c_sdk\util" "-I.\..\nim_chatroom_c_sdk\include" "-I.\..\nim_chatroom_cpp\util" "-I.\..\nim_chatroom_cpp\helper" "-I.\..\nim_chatroom_cpp\api" "-I.\..\nim_chatroom_cpp" "-I.\..\nim_sdk_cpp" "-I.\..\nim_sdk_cpp\api" "-I.\..\nim_sdk_cpp\helper" "-I.\..\nim_sdk_cpp\util" "-I.\..\nim_c_sdk\include" "-I.\..\nim_c_sdk\util" "-I.\..\third_party\jsoncpp\include\json" "-I.\..\nim_tools_cpp_sdk\nim_http_cpp" "-I.\..\nim_tools_cpp_sdk\nim_audio_cpp"
^C:\USERS\ARTUR\DESKTOP\QTDEK\QT_58_VS2013_DEMO\DEBUG\MOC_PREDEFS.H.CBT
cl -Bx"C:\Qt\5.8\msvc2013\bin\qmake.exe" -nologo -Zc:wchar_t -FS -Zi -MDd -GR -W3 -w34100 -w34189 -w44996 -E -Za C:\Qt\5.8\msvc2013\mkspecs\features\data\dummy.cpp 2>NUL >debug\moc_predefs.h
^C:\USERS\ARTUR\DESKTOP\QTDEK\QT_58_VS2013_DEMO\MAINWINDOW.UI
"C:\Qt\5.8\msvc2013\bin\uic.exe" -o ".\GeneratedFiles\ui_mainwindow.h" "C:\Users\Artur\Desktop\qtdek\qt_58_vs2013_demo\mainwindow.ui"
^C:\USERS\ARTUR\DESKTOP\QTDEK\QT_58_VS2013_DEMO\AUTORIZATION.UI
"C:\Qt\5.8\msvc2013\bin\uic.exe" -o ".\GeneratedFiles\ui_Autorization.h" "C:\Users\Artur\Desktop\qtdek\qt_58_vs2013_demo\Autorization.ui"
^D:\DOWNLOAD FROM GOOGLE\QTDEK\QT_58_VS2013_DEMO\MAINWINDOW.H
"C:\Qt\5.8\msvc2013\bin\moc.exe"  "D:\Download from google\qtdek\qt_58_vs2013_demo\mainwindow.h" -o ".\GeneratedFiles\Debug\moc_mainwindow.cpp"  -D_WINDOWS -DUNICODE -DWIN32 -DQT_DEPRECATED_WARNINGS -DQT_WIDGETS_LIB -DQT_GUI_LIB -DQT_CORE_LIB -DNIM_WIN_DESKTOP_ONLY_SDK  "-I." "-IC:\Qt\5.8\msvc2013\include" "-IC:\Qt\5.8\msvc2013\include\QtWidgets" "-IC:\Qt\5.8\msvc2013\include\QtGui" "-IC:\Qt\5.8\msvc2013\include\QtANGLE" "-IC:\Qt\5.8\msvc2013\include\QtCore" "-I.\debug" "-IC:\Qt\5.8\msvc2013\mkspecs\win32-msvc2013" "-I.\GeneratedFiles" "-I.\..\nim_chatroom_c_sdk\util" "-I.\..\nim_chatroom_c_sdk\include" "-I.\..\nim_chatroom_cpp\util" "-I.\..\nim_chatroom_cpp\helper" "-I.\..\nim_chatroom_cpp\api" "-I.\..\nim_chatroom_cpp" "-I.\..\nim_sdk_cpp" "-I.\..\nim_sdk_cpp\api" "-I.\..\nim_sdk_cpp\helper" "-I.\..\nim_sdk_cpp\util" "-I.\..\nim_c_sdk\include" "-I.\..\nim_c_sdk\util" "-I.\..\third_party\jsoncpp\include\json" "-I.\..\nim_tools_cpp_sdk\nim_http_cpp" "-I.\..\nim_tools_cpp_sdk\nim_audio_cpp"
^D:\DOWNLOAD FROM GOOGLE\QTDEK\QT_58_VS2013_DEMO\DEBUG\MOC_PREDEFS.H.CBT
cl -Bx"C:\Qt\5.8\msvc2013\bin\qmake.exe" -nologo -Zc:wchar_t -FS -Zi -MDd -GR -W3 -w34100 -w34189 -w44996 -E -Za C:\Qt\5.8\msvc2013\mkspecs\features\data\dummy.cpp 2>NUL >debug\moc_predefs.h
^D:\DOWNLOAD FROM GOOGLE\QTDEK\QT_58_VS2013_DEMO\MAINWINDOW.UI
"C:\Qt\5.8\msvc2013\bin\uic.exe" -o ".\GeneratedFiles\ui_mainwindow.h" "D:\Download from google\qtdek\qt_58_vs2013_demo\mainwindow.ui"
^D:\DOWNLOAD FROM GOOGLE\QTDEK\QT_58_VS2013_DEMO\AUTORIZATION.UI
"C:\Qt\5.8\msvc2013\bin\uic.exe" -o ".\GeneratedFiles\ui_Autorization.h" "D:\Download from google\qtdek\qt_58_vs2013_demo\Autorization.ui"
^D:\DOWNLOAD FROM GOOGLE\QTDEK\QT_58_VS2013_DEMO\AUTORIZ.H
"C:\Qt\5.8\msvc2013\bin\moc.exe"  "D:\Download from google\qtdek\qt_58_vs2013_demo\autoriz.h" -o ".\GeneratedFiles\Debug\moc_autoriz.cpp"  -D_WINDOWS -DUNICODE -DWIN32 -DQT_DEPRECATED_WARNINGS -DQT_WIDGETS_LIB -DQT_GUI_LIB -DQT_CORE_LIB -DNIM_WIN_DESKTOP_ONLY_SDK "-I." "-IC:\Qt\5.8\msvc2013\include" "-IC:\Qt\5.8\msvc2013\include\QtWidgets" "-IC:\Qt\5.8\msvc2013\include\QtGui" "-IC:\Qt\5.8\msvc2013\include\QtANGLE" "-IC:\Qt\5.8\msvc2013\include\QtCore" "-I.\debug" "-IC:\Qt\5.8\msvc2013\mkspecs\win32-msvc2013" "-I.\GeneratedFiles" "-I.\..\nim_chatroom_c_sdk\util" "-I.\..\nim_chatroom_c_sdk\include" "-I.\..\nim_chatroom_cpp\util" "-I.\..\nim_chatroom_cpp\helper" "-I.\..\nim_chatroom_cpp\api" "-I.\..\nim_chatroom_cpp" "-I.\..\nim_sdk_cpp" "-I.\..\nim_sdk_cpp\api" "-I.\..\nim_sdk_cpp\helper" "-I.\..\nim_sdk_cpp\util" "-I.\..\nim_c_sdk\include" "-I.\..\nim_c_sdk\util" "-I.\..\third_party\jsoncpp\include\json" "-I.\..\nim_tools_cpp_sdk\nim_http_cpp" "-I.\..\nim_tools_cpp_sdk\nim_audio_cpp"
